<?xml version="1.0" encoding="utf-8"?>
<!-- Generator: Adobe Illustrator 19.1.0, SVG Export Plug-In . SVG Version: 6.00 Build 0)  -->
<svg version="1.1" id="Layer_1" xmlns="http://www.w3.org/2000/svg" xmlns:xlink="http://www.w3.org/1999/xlink" x="0px" y="0px"
	 viewBox="0 0 80 80" style="enable-background:new 0 0 80 80;" xml:space="preserve">
<style type="text/css">
	.st0{fill:#9AD645;}
	.st1{fill:#FCB330;}
	.st2{fill:#5C6D93;}
	.st3{fill:none;stroke:#FD0989;stroke-width:2.0064;stroke-miterlimit:10;}
	.st4{fill:none;stroke:#6C777A;stroke-width:2.2483;stroke-miterlimit:10;}
	.st5{fill:none;stroke:#6C777A;stroke-width:2.1037;stroke-miterlimit:10;}
	.st6{fill:none;stroke:#FD0989;stroke-width:1.5951;stroke-miterlimit:10;}
	.st7{fill:none;stroke:#AAAAAA;stroke-width:1.6804;stroke-miterlimit:10;}
	.st8{fill:none;stroke:#AAAAAA;stroke-width:1.5862;stroke-miterlimit:10;}
	.st9{fill:#FFFFFF;stroke:#AAAAAA;stroke-width:1.5862;stroke-miterlimit:10;}
	.st10{fill:none;stroke:#AAAAAA;stroke-width:1.8138;stroke-miterlimit:10;}
	.st11{fill:none;stroke:#AAAAAA;stroke-width:1.7922;stroke-miterlimit:10;}
	.st12{fill:none;stroke:#AAAAAA;stroke-width:1.5556;stroke-miterlimit:10;}
	.st13{fill:none;stroke:#AAAAAA;stroke-width:1.8554;stroke-miterlimit:10;}
	.st14{fill:#FFFFFF;}
</style>
<g>
	<g>
		<path class="st7" d="M41.7,20.3c1.4,0,2.5-0.6,3.5-1.6c0.9-1,1.4-2.2,1.3-3.6c0-1.4-0.6-2.6-1.5-3.5c-1-1-2.2-1.4-3.5-1.4
			c-1.4,0-2.5,0.6-3.5,1.6c-0.9,1-1.4,2.2-1.4,3.6s0.5,2.6,1.5,3.5C39.2,19.8,40.4,20.3,41.7,20.3z"/>
		<path class="st7" d="M58.6,37.1l-7.3-4l-6-9.6c-1.2-1.4-2.6-2.1-4.3-2.1c-1.2,0-2.3,0.5-3.3,1.5L28.6,32c-0.3,0.4-0.4,0.8-0.5,1.2
			l-1.2,10.3v0.3c0,0.6,0.2,1.2,0.7,1.6c0.4,0.4,1,0.7,1.6,0.7s1.1-0.2,1.5-0.7c0.4-0.4,0.6-0.9,0.7-1.5l0.9-8.8l3.2-3.2l-2.9,24.5
			L27.4,68c-0.2,0.5-0.3,1-0.3,1.5c0,1,0.3,1.8,1,2.5c0.7,0.7,1.5,1,2.5,0.9c1.3,0,2.3-0.6,2.9-1.9l5.6-12.5c0-0.1,0-0.2,0.1-0.5
			c0.1-0.2,0.2-0.4,0.3-0.6c0.1-0.2,0.1-0.4,0.1-0.5l0.7-6l5.7,19.7c0.6,1.6,1.7,2.4,3.3,2.3c0.9,0,1.7-0.3,2.3-1
			c0.7-0.7,1-1.5,1-2.5c0-0.1,0-0.2-0.1-0.3s-0.1-0.2-0.1-0.3l-8-27.3l0.9-8.9l2.3,3.6c0.2,0.3,0.4,0.5,0.7,0.7l7.9,4.4
			c0.5,0.2,0.9,0.3,1.1,0.3c0.6,0,1.2-0.2,1.6-0.7c0.4-0.5,0.7-1,0.7-1.7C59.7,38.2,59.3,37.6,58.6,37.1z"/>
	</g>
</g>
</svg>
