<?xml version="1.0" encoding="utf-8"?>
<!-- Generator: Adobe Illustrator 19.1.0, SVG Export Plug-In . SVG Version: 6.00 Build 0)  -->
<svg version="1.1" id="Layer_1" xmlns="http://www.w3.org/2000/svg" xmlns:xlink="http://www.w3.org/1999/xlink" x="0px" y="0px"
	 viewBox="0 0 80 80" style="enable-background:new 0 0 80 80;" xml:space="preserve">
<style type="text/css">
	.st0{fill:#9AD645;}
	.st1{fill:#FCB330;}
	.st2{fill:#5C6D93;}
	.st3{fill:none;stroke:#FD0989;stroke-width:2.0064;stroke-miterlimit:10;}
	.st4{fill:none;stroke:#6C777A;stroke-width:2.2483;stroke-miterlimit:10;}
	.st5{fill:none;stroke:#6C777A;stroke-width:2.1037;stroke-miterlimit:10;}
	.st6{fill:none;stroke:#FD0989;stroke-width:1.5951;stroke-miterlimit:10;}
	.st7{fill:none;stroke:#AAAAAA;stroke-width:1.6804;stroke-miterlimit:10;}
	.st8{fill:none;stroke:#AAAAAA;stroke-width:1.5862;stroke-miterlimit:10;}
	.st9{fill:#FFFFFF;stroke:#AAAAAA;stroke-width:1.5862;stroke-miterlimit:10;}
	.st10{fill:none;stroke:#AAAAAA;stroke-width:1.8138;stroke-miterlimit:10;}
	.st11{fill:none;stroke:#AAAAAA;stroke-width:1.7922;stroke-miterlimit:10;}
	.st12{fill:none;stroke:#AAAAAA;stroke-width:1.5556;stroke-miterlimit:10;}
	.st13{fill:none;stroke:#AAAAAA;stroke-width:1.8554;stroke-miterlimit:10;}
	.st14{fill:#FFFFFF;}
</style>
<g>
	<path class="st13" d="M25.6,25.3c0,1.5,0.7,2.8,2.2,3.8c0-0.2,0-0.5,0-0.9c0-0.8,0.3-1.5,0.9-2.1c0.6-0.6,1.4-0.8,2.3-0.8
		c2.6,0,3.9,1.3,3.9,3.9c0,1.7-0.7,3.1-2,4.3c-1.3,1.1-3,1.7-5,1.7c-2.6,0-4.7-0.9-6.4-2.6c-1.7-1.7-2.5-3.9-2.5-6.6
		c0-4.9,2.1-9,6.3-12.2C29.4,10.6,34.8,9,41.4,9c6.5,0,11.7,1.5,15.7,4.6c4,3,5.9,7.1,5.9,12c0,6.3-3.1,11-9.3,14.1
		c-1.1,0.5-2.4,1.1-4,1.8c-3.5,1.5-5.8,2.9-7.1,4.2c-1.3,1.3-1.9,3.1-1.9,5.4c0,1.6-0.1,2.8-0.4,3.3c-0.5,0.9-1.4,1.3-2.8,1.3
		c-2.5,0-3.7-1.5-3.7-4.6c0-2.8,0.7-5.2,2.1-7.2c1.8-2.4,5-4.9,9.7-7.5c4.2-2.3,6.9-4.1,8.2-5.5c1.2-1.4,1.8-3.3,1.8-5.7
		c0-3.2-1.3-5.8-4-7.8c-2.6-2-6.1-2.9-10.5-2.9c-4.4,0-8.1,1-11.1,3.1C27,19.8,25.6,22.3,25.6,25.3z M38.2,71
		c-1.5,0-2.8-0.5-3.9-1.6c-1.1-1.1-1.6-2.4-1.6-3.9c0-1.5,0.5-2.8,1.6-3.9c1.1-1.1,2.4-1.6,3.9-1.6c1.5,0,2.8,0.5,3.9,1.6
		c1.1,1.1,1.6,2.4,1.6,3.9c0,1.5-0.5,2.8-1.6,3.9C41,70.5,39.7,71,38.2,71z"/>
</g>
</svg>
