<?xml version="1.0" encoding="utf-8"?>
<!-- Generator: Adobe Illustrator 19.1.0, SVG Export Plug-In . SVG Version: 6.00 Build 0)  -->
<svg version="1.1" id="Layer_1" xmlns="http://www.w3.org/2000/svg" xmlns:xlink="http://www.w3.org/1999/xlink" x="0px" y="0px"
	 viewBox="0 0 80 80" style="enable-background:new 0 0 80 80;" xml:space="preserve">
<style type="text/css">
	.st0{fill:#9AD645;}
	.st1{fill:#FCB330;}
	.st2{fill:#5C6D93;}
	.st3{fill:none;stroke:#FD0989;stroke-width:2.0064;stroke-miterlimit:10;}
	.st4{fill:none;stroke:#6C777A;stroke-width:2.2483;stroke-miterlimit:10;}
	.st5{fill:none;stroke:#6C777A;stroke-width:2.1037;stroke-miterlimit:10;}
	.st6{fill:none;stroke:#FD0989;stroke-width:1.5951;stroke-miterlimit:10;}
	.st7{fill:none;stroke:#AAAAAA;stroke-width:1.6804;stroke-miterlimit:10;}
	.st8{fill:none;stroke:#AAAAAA;stroke-width:1.5862;stroke-miterlimit:10;}
	.st9{fill:#FFFFFF;stroke:#AAAAAA;stroke-width:1.5862;stroke-miterlimit:10;}
	.st10{fill:none;stroke:#AAAAAA;stroke-width:1.8138;stroke-miterlimit:10;}
	.st11{fill:none;stroke:#AAAAAA;stroke-width:1.7922;stroke-miterlimit:10;}
	.st12{fill:none;stroke:#AAAAAA;stroke-width:1.5556;stroke-miterlimit:10;}
	.st13{fill:none;stroke:#AAAAAA;stroke-width:1.8554;stroke-miterlimit:10;}
	.st14{fill:#FFFFFF;}
</style>
<path class="st0" d="M11.9,49.2c4.7,2.7,9.7,8.1,14.5,14.7c5,6.8,18.6-31.3,42.8-48.2c0,0-11.6,2.9-21.7,14s-18.2,19.8-19,19.8
	c-0.8,0-6.1-6.9-11.4-8.2C13.3,40.4,7.2,46.4,11.9,49.2z"/>
</svg>
